M48
METRIC,0000.00
T01C0.5
T02C0.9
T03C0.92
T04C1.09
T05C1.1
T06C1.2
T07C3.26
%
T01
X+000274Y-001044
X+000370Y-000429
X+000225Y-000266
X+000566Y-000125
X+000929Y+000001
X+000929Y-000283
X+000929Y-000558
X+000929Y-000845
X+000929Y+000288
X+000929Y+000574
X+001584Y+001251
X-000009Y+000922
X-000411Y+001207
X-000710Y+000922
X-000804Y+000801
X-000445Y+000413
X-000034Y+000037
X-001035Y-000604
X-001211Y-000930
X-001837Y+001056
T02
X-000365Y-001302
X-000111Y-001302
X+000143Y-001302
X+000397Y-001302
X+000778Y-001302
X+001032Y-001302
X-001134Y-000226
X-001134Y+000028
X-001134Y+000282
X-001134Y+000536
T03
X-001770Y-000350
X-001770Y-000100
X-001770Y+000100
X-001770Y+000350
T04
X+001885Y-000554
X+001885Y-000277
X+001885Y+000000
X+001885Y+000277
X+001885Y+000554
X+002169Y+000415
X+002169Y+000138
X+002169Y-000138
X+002169Y-000415
T05
X-001980Y-000225
X-001980Y+000225
T06
X-001915Y-000585G85X-002045Y-000585
X-001915Y+000585G85X-002045Y+000585
T07
X+002027Y+001250
X+002027Y-001250
T00
M30
